<svg width="24" height="20" viewBox="0 0 24 20" fill="none" xmlns="http://www.w3.org/2000/svg">
<path opacity="0.3" fill-rule="evenodd" clip-rule="evenodd" d="M13.0195 1.79959L12 0.855469L10.9805 1.79959L5.19043 7.16257L4.65186 7.65002V7.66147L0.980469 11.0621L3.01953 13.263L4.65186 11.751V17V20H7.65186H16.3481H19.3481V17V11.751L20.9805 13.263L23.0195 11.0621L19.3481 7.66147V7.65002L18.8096 7.16257L13.0195 1.79959ZM16.3481 8.98117L12 5.04617L7.65186 8.98117V17H16.3481V8.98117Z" fill="url(#paint0_linear)"/>
<defs>
<linearGradient id="paint0_linear" x1="0.980469" y1="10.4277" x2="23.0195" y2="10.4277" gradientUnits="userSpaceOnUse">
<stop stop-color="#1F71AB"/>
<stop offset="1" stop-color="#263F64"/>
</linearGradient>
</defs>
</svg>
