<svg width="20" height="20" viewBox="0 0 20 20" fill="none" xmlns="http://www.w3.org/2000/svg">
<path opacity="0.3" fill-rule="evenodd" clip-rule="evenodd" d="M10.937 10.6713L17 5.82089V17H3V5.82089L9.06299 10.6713L10 11.4209L10.937 10.6713ZM4.27612 3L10 7.57907L15.7239 3H4.27612ZM0 0H3H17H20V3V3.4209V17V20H17H3H0V17V3.4209V3V0Z" fill="url(#paint0_linear)"/>
<defs>
<linearGradient id="paint0_linear" x1="0" y1="10" x2="20" y2="10" gradientUnits="userSpaceOnUse">
<stop stop-color="#1F71AB"/>
<stop offset="1" stop-color="#263F64"/>
</linearGradient>
</defs>
</svg>
